{
  "profiles": {
    "BlazorEShop.Spa.BlazorWasm.Server": {
      "commandName": "Project",
      "launchBrowser": true,
      "environmentVariables": {
        "Test1": "Test1",
        "ASPNETCORE_ENVIRONMENT": "Development"
      },
      "useSSL": false,
      "applicationUrl": "http://localhost:5003"
    }
  }
}